<?xml version="1.0" encoding="utf-8"?>
<svg fill="none" viewBox="0 0 24 24" aria-hidden="true" xmlns="http://www.w3.org/2000/svg">
  <defs/>
  <path fill-rule="evenodd" d="M 10.518 5.981 C 9.875 5.339 8.834 5.339 8.191 5.981 C 5.728 8.442 5.607 12.391 7.914 14.997 L 5.746 17.164 C 5.311 17.569 5.478 18.293 6.045 18.466 C 6.328 18.552 6.635 18.471 6.836 18.254 L 9.007 16.088 C 11.618 18.378 15.56 18.251 18.017 15.797 C 18.661 15.156 18.661 14.113 18.017 13.473 L 16.366 11.822 L 18.136 10.054 C 18.564 9.64 18.382 8.921 17.811 8.757 C 17.538 8.679 17.242 8.759 17.043 8.963 L 15.273 10.733 L 13.276 8.738 L 15.047 6.968 C 15.481 6.563 15.315 5.84 14.747 5.667 C 14.464 5.58 14.157 5.662 13.956 5.878 L 12.186 7.647 L 10.518 5.981 Z M 9.283 7.071 C 9.323 7.032 9.385 7.032 9.425 7.071 L 16.926 14.563 C 16.966 14.602 16.966 14.666 16.926 14.707 C 14.955 16.675 11.76 16.675 9.788 14.707 L 9.283 14.201 C 7.312 12.232 7.312 9.04 9.283 7.071 Z" clip-rule="evenodd" style="fill: rgb(24, 105, 243);"/>
</svg>