<?xml version="1.0" encoding="utf-8"?>
<svg fill="none" viewBox="0 0 24 24" aria-hidden="true" xmlns="http://www.w3.org/2000/svg">
  <defs/>
  <path fill-rule="evenodd" d="M 5.25 5.499 C 4.56 5.499 4 6.059 4 6.749 L 4 15.249 C 4 15.939 4.56 16.499 5.25 16.499 L 9 16.499 C 9.896 16.499 10.475 16.704 10.809 16.947 C 11.126 17.177 11.25 17.457 11.25 17.749 C 11.25 18.326 11.875 18.687 12.375 18.399 C 12.607 18.265 12.75 18.017 12.75 17.749 C 12.75 17.457 12.874 17.177 13.191 16.947 C 13.525 16.704 14.104 16.499 15 16.499 L 18.75 16.499 C 19.44 16.499 20 15.939 20 15.249 L 20 6.749 C 20 6.059 19.44 5.499 18.75 5.499 L 15 5.499 C 13.846 5.499 12.894 5.853 12.228 6.499 C 12.147 6.579 12.071 6.66 12 6.745 C 11.928 6.659 11.852 6.577 11.772 6.499 C 11.106 5.853 10.154 5.499 9 5.499 L 5.25 5.499 Z M 12.75 15.466 C 13.36 15.157 14.122 14.999 15 14.999 L 18.5 14.999 L 18.5 6.999 L 15 6.999 C 14.154 6.999 13.606 7.252 13.272 7.576 C 12.937 7.901 12.75 8.363 12.75 8.916 L 12.75 15.466 Z M 11.25 15.466 L 11.25 8.916 C 11.25 8.363 11.063 7.901 10.728 7.576 C 10.394 7.252 9.846 6.999 9 6.999 L 5.5 6.999 L 5.5 14.999 L 9 14.999 C 9.878 14.999 10.64 15.157 11.25 15.466 Z" clip-rule="evenodd" style="fill: rgb(24, 105, 243);"/>
</svg>